-------------------------------------------------------------------------------
Test set: org.jasig.cas.monitor.DataSourceMonitorTests
-------------------------------------------------------------------------------
Tests run: 1, Failures: 0, Errors: 0, Skipped: 0, Time elapsed: 2.538 sec
