-encoding
UTF-8
-source
1.6
-target
1.6
-classpath
C:\Users\renisaskusumah\.m2\repository\log4j\log4j\1.2.17\log4j-1.2.17.jar;C:\Users\renisaskusumah\.m2\repository\com\github\inspektr\inspektr-audit\1.0.7.GA\inspektr-audit-1.0.7.GA.jar;C:\Users\renisaskusumah\.m2\repository\org\jasig\service\persondir\person-directory-impl\1.5.1\person-directory-impl-1.5.1.jar;C:\Users\renisaskusumah\.m2\repository\commons-codec\commons-codec\1.7\commons-codec-1.7.jar;C:\Users\renisaskusumah\.m2\repository\org\springframework\spring-orm\3.2.6.RELEASE\spring-orm-3.2.6.RELEASE.jar;C:\Users\renisaskusumah\.m2\repository\org\springframework\spring-jdbc\3.2.6.RELEASE\spring-jdbc-3.2.6.RELEASE.jar;C:\Users\renisaskusumah\.m2\repository\org\springframework\spring-core\3.2.6.RELEASE\spring-core-3.2.6.RELEASE.jar;C:\Users\renisaskusumah\.m2\repository\org\springframework\spring-beans\3.2.6.RELEASE\spring-beans-3.2.6.RELEASE.jar;C:\Users\renisaskusumah\.m2\repository\org\springframework\spring-webmvc\3.2.6.RELEASE\spring-webmvc-3.2.6.RELEASE.jar;C:\Users\renisaskusumah\.m2\repository\org\springframework\spring-context-support\3.2.6.RELEASE\spring-context-support-3.2.6.RELEASE.jar;C:\Users\renisaskusumah\.m2\repository\org\springframework\spring-tx\3.2.6.RELEASE\spring-tx-3.2.6.RELEASE.jar;C:\Users\renisaskusumah\.m2\repository\org\springframework\spring-context\3.2.6.RELEASE\spring-context-3.2.6.RELEASE.jar;C:\Users\renisaskusumah\.m2\repository\org\springframework\security\spring-security-core\3.2.0.RELEASE\spring-security-core-3.2.0.RELEASE.jar;C:\Users\renisaskusumah\.m2\repository\org\hsqldb\hsqldb\2.0.0\hsqldb-2.0.0.jar;C:\Users\renisaskusumah\.m2\repository\org\hibernate\hibernate-validator\4.2.0.Final\hibernate-validator-4.2.0.Final.jar;C:\Users\renisaskusumah\.m2\repository\org\hibernate\hibernate-core\4.1.0.Final\hibernate-core-4.1.0.Final.jar;C:\Users\renisaskusumah\.m2\repository\org\hibernate\hibernate-entitymanager\4.1.0.Final\hibernate-entitymanager-4.1.0.Final.jar;C:\Users\renisaskusumah\.m2\repository\javassist\javassist\3.12.1.GA\javassist-3.12.1.GA.jar;C:\Users\renisaskusumah\.m2\repository\org\perf4j\perf4j\0.9.16\perf4j-0.9.16-log4jonly.jar;C:\Users\renisaskusumah\.m2\repository\org\springframework\webflow\spring-webflow\2.3.2.RELEASE\spring-webflow-2.3.2.RELEASE.jar;C:\Users\renisaskusumah\.m2\repository\commons-jexl\commons-jexl\1.1\commons-jexl-1.1.jar;C:\Users\renisaskusumah\.m2\repository\commons-io\commons-io\2.4\commons-io-2.4.jar;C:\Users\renisaskusumah\.m2\repository\joda-time\joda-time\2.2\joda-time-2.2.jar;C:\Users\renisaskusumah\.m2\repository\org\opensymphony\quartz\quartz\1.6.1\quartz-1.6.1.jar;C:\Users\renisaskusumah\.m2\repository\com\github\inspektr\inspektr-support-spring\1.0.7.GA\inspektr-support-spring-1.0.7.GA.jar;C:\Users\renisaskusumah\.m2\repository\org\jasig\cas\cas-server-webapp\4.0.0\cas-server-webapp-4.0.0.war;C:\Users\renisaskusumah\.m2\repository\org\springframework\ldap\spring-ldap-core\2.1.0.RELEASE\spring-ldap-core-2.1.0.RELEASE.jar;C:\Users\renisaskusumah\.m2\repository\org\jasig\cas\cas-server-support-ldap\4.0.0\cas-server-support-ldap-4.0.0.jar;C:\Users\renisaskusumah\.m2\repository\org\ldaptive\ldaptive-templates\1.2.0\ldaptive-templates-1.2.0.jar;C:\Users\renisaskusumah\.m2\repository\junit\junit\4.11\junit-4.11.jar;C:\Users\renisaskusumah\.m2\repository\org\mockito\mockito-core\1.9.5\mockito-core-1.9.5.jar;C:\Users\renisaskusumah\.m2\repository\org\springframework\spring-test\3.2.6.RELEASE\spring-test-3.2.6.RELEASE.jar;C:\Users\renisaskusumah\.m2\repository\javax\servlet\servlet-api\2.5\servlet-api-2.5.jar;C:\Users\renisaskusumah\.m2\repository\org\aspectj\aspectjrt\1.7.2\aspectjrt-1.7.2.jar;C:\Users\renisaskusumah\.m2\repository\org\aspectj\aspectjweaver\1.7.2\aspectjweaver-1.7.2.jar;C:\Users\renisaskusumah\.m2\repository\javax\validation\validation-api\1.0.0.GA\validation-api-1.0.0.GA.jar;C:\Users\renisaskusumah\.m2\repository\org\slf4j\slf4j-api\1.7.5\slf4j-api-1.7.5.jar;C:\Users\renisaskusumah\.m2\repository\org\slf4j\slf4j-log4j12\1.7.5\slf4j-log4j12-1.7.5.jar;C:\Users\renisaskusumah\.m2\repository\org\slf4j\jcl-over-slf4j\1.7.5\jcl-over-slf4j-1.7.5.jar;C:\Users\renisaskusumah\.m2\repository\com\github\inspektr\inspektr-common\1.0.7.GA\inspektr-common-1.0.7.GA.jar;C:\Users\renisaskusumah\.m2\repository\aopalliance\aopalliance\1.0\aopalliance-1.0.jar;C:\Users\renisaskusumah\.m2\repository\com\sun\xml\bind\jaxb-impl\2.2\jaxb-impl-2.2.jar;C:\Users\renisaskusumah\.m2\repository\javax\xml\bind\jaxb-api\2.2\jaxb-api-2.2.jar;C:\Users\renisaskusumah\.m2\repository\javax\xml\stream\stax-api\1.0-2\stax-api-1.0-2.jar;C:\Users\renisaskusumah\.m2\repository\javax\activation\activation\1.1\activation-1.1.jar;C:\Users\renisaskusumah\.m2\repository\commons-collections\commons-collections\3.2.1\commons-collections-3.2.1.jar;C:\Users\renisaskusumah\.m2\repository\commons-lang\commons-lang\2.5\commons-lang-2.5.jar;C:\Users\renisaskusumah\.m2\repository\org\jasig\service\persondir\person-directory-api\1.5.1\person-directory-api-1.5.1.jar;C:\Users\renisaskusumah\.m2\repository\org\springframework\spring-expression\3.2.6.RELEASE\spring-expression-3.2.6.RELEASE.jar;C:\Users\renisaskusumah\.m2\repository\org\springframework\spring-web\3.2.6.RELEASE\spring-web-3.2.6.RELEASE.jar;C:\Users\renisaskusumah\.m2\repository\org\springframework\spring-aop\3.2.6.RELEASE\spring-aop-3.2.6.RELEASE.jar;C:\Users\renisaskusumah\.m2\repository\antlr\antlr\2.7.7\antlr-2.7.7.jar;C:\Users\renisaskusumah\.m2\repository\org\jboss\spec\javax\transaction\jboss-transaction-api_1.1_spec\1.0.0.Final\jboss-transaction-api_1.1_spec-1.0.0.Final.jar;C:\Users\renisaskusumah\.m2\repository\dom4j\dom4j\1.6.1\dom4j-1.6.1.jar;C:\Users\renisaskusumah\.m2\repository\xml-apis\xml-apis\1.0.b2\xml-apis-1.0.b2.jar;C:\Users\renisaskusumah\.m2\repository\org\hibernate\javax\persistence\hibernate-jpa-2.0-api\1.0.1.Final\hibernate-jpa-2.0-api-1.0.1.Final.jar;C:\Users\renisaskusumah\.m2\repository\org\jboss\logging\jboss-logging\3.1.0.CR2\jboss-logging-3.1.0.CR2.jar;C:\Users\renisaskusumah\.m2\repository\org\javassist\javassist\3.15.0-GA\javassist-3.15.0-GA.jar;C:\Users\renisaskusumah\.m2\repository\org\hibernate\common\hibernate-commons-annotations\4.0.1.Final\hibernate-commons-annotations-4.0.1.Final.jar;C:\Users\renisaskusumah\.m2\repository\org\springframework\webflow\spring-binding\2.3.2.RELEASE\spring-binding-2.3.2.RELEASE.jar;C:\Users\renisaskusumah\.m2\repository\org\springframework\webflow\spring-js\2.3.2.RELEASE\spring-js-2.3.2.RELEASE.jar;C:\Users\renisaskusumah\.m2\repository\org\springframework\webflow\spring-js-resources\2.3.2.RELEASE\spring-js-resources-2.3.2.RELEASE.jar;C:\Users\renisaskusumah\.m2\repository\org\jasig\cas\cas-server-core\4.0.0\cas-server-core-4.0.0.jar;C:\Users\renisaskusumah\.m2\repository\org\ldaptive\ldaptive\1.0.3\ldaptive-1.0.3.jar;C:\Users\renisaskusumah\.m2\repository\org\ldaptive\ldaptive-json\1.2.0\ldaptive-json-1.2.0.jar;C:\Users\renisaskusumah\.m2\repository\com\google\code\gson\gson\2.7\gson-2.7.jar;C:\Users\renisaskusumah\.m2\repository\org\ldaptive\ldaptive-beans\1.2.0\ldaptive-beans-1.2.0.jar;E:\~PLN~\PORTAL\cas-server-4.0.0\cas-server-core\target\classes
-d
E:\~PLN~\PORTAL\cas-server-4.0.0\cas-server-core\target\classes
E:\~PLN~\PORTAL\cas-server-4.0.0\cas-server-core\src\main\java\org\jasig\cas\aspect\LogAspect.java
E:\~PLN~\PORTAL\cas-server-4.0.0\cas-server-core\src\main\java\org\jasig\cas\audit\spi\CredentialsAsFirstParameterResourceResolver.java
E:\~PLN~\PORTAL\cas-server-4.0.0\cas-server-core\src\main\java\org\jasig\cas\audit\spi\ServiceManagementResourceResolver.java
E:\~PLN~\PORTAL\cas-server-4.0.0\cas-server-core\src\main\java\org\jasig\cas\audit\spi\ServiceResourceResolver.java
E:\~PLN~\PORTAL\cas-server-4.0.0\cas-server-core\src\main\java\org\jasig\cas\audit\spi\TicketAsFirstParameterResourceResolver.java
E:\~PLN~\PORTAL\cas-server-4.0.0\cas-server-core\src\main\java\org\jasig\cas\audit\spi\TicketOrCredentialPrincipalResolver.java
E:\~PLN~\PORTAL\cas-server-4.0.0\cas-server-core\src\main\java\org\jasig\cas\authentication\AbstractAuthenticationHandler.java
E:\~PLN~\PORTAL\cas-server-4.0.0\cas-server-core\src\main\java\org\jasig\cas\authentication\AbstractCredential.java
E:\~PLN~\PORTAL\cas-server-4.0.0\cas-server-core\src\main\java\org\jasig\cas\authentication\AcceptAnyAuthenticationPolicyFactory.java
E:\~PLN~\PORTAL\cas-server-4.0.0\cas-server-core\src\main\java\org\jasig\cas\authentication\AcceptUsersAuthenticationHandler.java
E:\~PLN~\PORTAL\cas-server-4.0.0\cas-server-core\src\main\java\org\jasig\cas\authentication\AccountDisabledException.java
E:\~PLN~\PORTAL\cas-server-4.0.0\cas-server-core\src\main\java\org\jasig\cas\authentication\AccountPasswordMustChangeException.java
E:\~PLN~\PORTAL\cas-server-4.0.0\cas-server-core\src\main\java\org\jasig\cas\authentication\AllAuthenticationPolicy.java
E:\~PLN~\PORTAL\cas-server-4.0.0\cas-server-core\src\main\java\org\jasig\cas\authentication\AnyAuthenticationPolicy.java
E:\~PLN~\PORTAL\cas-server-4.0.0\cas-server-core\src\main\java\org\jasig\cas\authentication\Authentication.java
E:\~PLN~\PORTAL\cas-server-4.0.0\cas-server-core\src\main\java\org\jasig\cas\authentication\AuthenticationBuilder.java
E:\~PLN~\PORTAL\cas-server-4.0.0\cas-server-core\src\main\java\org\jasig\cas\authentication\AuthenticationException.java
E:\~PLN~\PORTAL\cas-server-4.0.0\cas-server-core\src\main\java\org\jasig\cas\authentication\AuthenticationHandler.java
E:\~PLN~\PORTAL\cas-server-4.0.0\cas-server-core\src\main\java\org\jasig\cas\authentication\AuthenticationManager.java
E:\~PLN~\PORTAL\cas-server-4.0.0\cas-server-core\src\main\java\org\jasig\cas\authentication\AuthenticationMetaDataPopulator.java
E:\~PLN~\PORTAL\cas-server-4.0.0\cas-server-core\src\main\java\org\jasig\cas\authentication\AuthenticationPolicy.java
E:\~PLN~\PORTAL\cas-server-4.0.0\cas-server-core\src\main\java\org\jasig\cas\authentication\BasicCredentialMetaData.java
E:\~PLN~\PORTAL\cas-server-4.0.0\cas-server-core\src\main\java\org\jasig\cas\authentication\ContextualAuthenticationPolicy.java
E:\~PLN~\PORTAL\cas-server-4.0.0\cas-server-core\src\main\java\org\jasig\cas\authentication\ContextualAuthenticationPolicyFactory.java
E:\~PLN~\PORTAL\cas-server-4.0.0\cas-server-core\src\main\java\org\jasig\cas\authentication\Credential.java
E:\~PLN~\PORTAL\cas-server-4.0.0\cas-server-core\src\main\java\org\jasig\cas\authentication\CredentialMetaData.java
E:\~PLN~\PORTAL\cas-server-4.0.0\cas-server-core\src\main\java\org\jasig\cas\authentication\handler\AuthenticationException.java
E:\~PLN~\PORTAL\cas-server-4.0.0\cas-server-core\src\main\java\org\jasig\cas\authentication\handler\BadCredentialsAuthenticationException.java
E:\~PLN~\PORTAL\cas-server-4.0.0\cas-server-core\src\main\java\org\jasig\cas\authentication\handler\BadPasswordAuthenticationException.java
E:\~PLN~\PORTAL\cas-server-4.0.0\cas-server-core\src\main\java\org\jasig\cas\authentication\handler\BadUsernameOrPasswordAuthenticationException.java
E:\~PLN~\PORTAL\cas-server-4.0.0\cas-server-core\src\main\java\org\jasig\cas\authentication\handler\BlockedCredentialsAuthenticationException.java
E:\~PLN~\PORTAL\cas-server-4.0.0\cas-server-core\src\main\java\org\jasig\cas\authentication\handler\DefaultPasswordEncoder.java
E:\~PLN~\PORTAL\cas-server-4.0.0\cas-server-core\src\main\java\org\jasig\cas\authentication\handler\NoOpPrincipalNameTransformer.java
E:\~PLN~\PORTAL\cas-server-4.0.0\cas-server-core\src\main\java\org\jasig\cas\authentication\handler\PasswordEncoder.java
E:\~PLN~\PORTAL\cas-server-4.0.0\cas-server-core\src\main\java\org\jasig\cas\authentication\handler\PlainTextPasswordEncoder.java
E:\~PLN~\PORTAL\cas-server-4.0.0\cas-server-core\src\main\java\org\jasig\cas\authentication\handler\PrefixSuffixPrincipalNameTransformer.java
E:\~PLN~\PORTAL\cas-server-4.0.0\cas-server-core\src\main\java\org\jasig\cas\authentication\handler\PrincipalNameTransformer.java
E:\~PLN~\PORTAL\cas-server-4.0.0\cas-server-core\src\main\java\org\jasig\cas\authentication\handler\support\AbstractPreAndPostProcessingAuthenticationHandler.java
E:\~PLN~\PORTAL\cas-server-4.0.0\cas-server-core\src\main\java\org\jasig\cas\authentication\handler\support\AbstractUsernamePasswordAuthenticationHandler.java
E:\~PLN~\PORTAL\cas-server-4.0.0\cas-server-core\src\main\java\org\jasig\cas\authentication\handler\support\HttpBasedServiceCredentialsAuthenticationHandler.java
E:\~PLN~\PORTAL\cas-server-4.0.0\cas-server-core\src\main\java\org\jasig\cas\authentication\handler\support\JaasAuthenticationHandler.java
E:\~PLN~\PORTAL\cas-server-4.0.0\cas-server-core\src\main\java\org\jasig\cas\authentication\handler\UncategorizedAuthenticationException.java
E:\~PLN~\PORTAL\cas-server-4.0.0\cas-server-core\src\main\java\org\jasig\cas\authentication\handler\UnknownUsernameAuthenticationException.java
E:\~PLN~\PORTAL\cas-server-4.0.0\cas-server-core\src\main\java\org\jasig\cas\authentication\handler\UnsupportedCredentialsException.java
E:\~PLN~\PORTAL\cas-server-4.0.0\cas-server-core\src\main\java\org\jasig\cas\authentication\HandlerResult.java
E:\~PLN~\PORTAL\cas-server-4.0.0\cas-server-core\src\main\java\org\jasig\cas\authentication\HttpBasedServiceCredential.java
E:\~PLN~\PORTAL\cas-server-4.0.0\cas-server-core\src\main\java\org\jasig\cas\authentication\ImmutableAuthentication.java
E:\~PLN~\PORTAL\cas-server-4.0.0\cas-server-core\src\main\java\org\jasig\cas\authentication\InvalidLoginLocationException.java
E:\~PLN~\PORTAL\cas-server-4.0.0\cas-server-core\src\main\java\org\jasig\cas\authentication\InvalidLoginTimeException.java
E:\~PLN~\PORTAL\cas-server-4.0.0\cas-server-core\src\main\java\org\jasig\cas\authentication\MixedPrincipalException.java
E:\~PLN~\PORTAL\cas-server-4.0.0\cas-server-core\src\main\java\org\jasig\cas\authentication\NotPreventedAuthenticationPolicy.java
E:\~PLN~\PORTAL\cas-server-4.0.0\cas-server-core\src\main\java\org\jasig\cas\authentication\OneTimePasswordCredential.java
E:\~PLN~\PORTAL\cas-server-4.0.0\cas-server-core\src\main\java\org\jasig\cas\authentication\PolicyBasedAuthenticationManager.java
E:\~PLN~\PORTAL\cas-server-4.0.0\cas-server-core\src\main\java\org\jasig\cas\authentication\PreventedException.java
E:\~PLN~\PORTAL\cas-server-4.0.0\cas-server-core\src\main\java\org\jasig\cas\authentication\principal\AbstractWebApplicationService.java
E:\~PLN~\PORTAL\cas-server-4.0.0\cas-server-core\src\main\java\org\jasig\cas\authentication\principal\BasicPrincipalResolver.java
E:\~PLN~\PORTAL\cas-server-4.0.0\cas-server-core\src\main\java\org\jasig\cas\authentication\principal\ChainingPrincipalResolver.java
E:\~PLN~\PORTAL\cas-server-4.0.0\cas-server-core\src\main\java\org\jasig\cas\authentication\principal\PersistentIdGenerator.java
E:\~PLN~\PORTAL\cas-server-4.0.0\cas-server-core\src\main\java\org\jasig\cas\authentication\principal\PersonDirectoryPrincipalResolver.java
E:\~PLN~\PORTAL\cas-server-4.0.0\cas-server-core\src\main\java\org\jasig\cas\authentication\principal\Principal.java
E:\~PLN~\PORTAL\cas-server-4.0.0\cas-server-core\src\main\java\org\jasig\cas\authentication\principal\PrincipalResolver.java
E:\~PLN~\PORTAL\cas-server-4.0.0\cas-server-core\src\main\java\org\jasig\cas\authentication\principal\RememberMeAuthenticationMetaDataPopulator.java
E:\~PLN~\PORTAL\cas-server-4.0.0\cas-server-core\src\main\java\org\jasig\cas\authentication\principal\Response.java
E:\~PLN~\PORTAL\cas-server-4.0.0\cas-server-core\src\main\java\org\jasig\cas\authentication\principal\Service.java
E:\~PLN~\PORTAL\cas-server-4.0.0\cas-server-core\src\main\java\org\jasig\cas\authentication\principal\ShibbolethCompatiblePersistentIdGenerator.java
E:\~PLN~\PORTAL\cas-server-4.0.0\cas-server-core\src\main\java\org\jasig\cas\authentication\principal\SimplePrincipal.java
E:\~PLN~\PORTAL\cas-server-4.0.0\cas-server-core\src\main\java\org\jasig\cas\authentication\principal\SimpleWebApplicationServiceImpl.java
E:\~PLN~\PORTAL\cas-server-4.0.0\cas-server-core\src\main\java\org\jasig\cas\authentication\principal\SingleLogoutService.java
E:\~PLN~\PORTAL\cas-server-4.0.0\cas-server-core\src\main\java\org\jasig\cas\authentication\principal\WebApplicationService.java
E:\~PLN~\PORTAL\cas-server-4.0.0\cas-server-core\src\main\java\org\jasig\cas\authentication\PrincipalException.java
E:\~PLN~\PORTAL\cas-server-4.0.0\cas-server-core\src\main\java\org\jasig\cas\authentication\RememberMeCredential.java
E:\~PLN~\PORTAL\cas-server-4.0.0\cas-server-core\src\main\java\org\jasig\cas\authentication\RememberMeUsernamePasswordCredential.java
E:\~PLN~\PORTAL\cas-server-4.0.0\cas-server-core\src\main\java\org\jasig\cas\authentication\RequiredHandlerAuthenticationPolicy.java
E:\~PLN~\PORTAL\cas-server-4.0.0\cas-server-core\src\main\java\org\jasig\cas\authentication\RequiredHandlerAuthenticationPolicyFactory.java
E:\~PLN~\PORTAL\cas-server-4.0.0\cas-server-core\src\main\java\org\jasig\cas\authentication\RootCasException.java
E:\~PLN~\PORTAL\cas-server-4.0.0\cas-server-core\src\main\java\org\jasig\cas\authentication\SuccessfulHandlerMetaDataPopulator.java
E:\~PLN~\PORTAL\cas-server-4.0.0\cas-server-core\src\main\java\org\jasig\cas\authentication\support\PasswordExpiringWarningMessage.java
E:\~PLN~\PORTAL\cas-server-4.0.0\cas-server-core\src\main\java\org\jasig\cas\authentication\support\PasswordPolicyConfiguration.java
E:\~PLN~\PORTAL\cas-server-4.0.0\cas-server-core\src\main\java\org\jasig\cas\authentication\UnresolvedPrincipalException.java
E:\~PLN~\PORTAL\cas-server-4.0.0\cas-server-core\src\main\java\org\jasig\cas\authentication\UsernamePasswordCredential.java
E:\~PLN~\PORTAL\cas-server-4.0.0\cas-server-core\src\main\java\org\jasig\cas\CasVersion.java
E:\~PLN~\PORTAL\cas-server-4.0.0\cas-server-core\src\main\java\org\jasig\cas\CentralAuthenticationService.java
E:\~PLN~\PORTAL\cas-server-4.0.0\cas-server-core\src\main\java\org\jasig\cas\CentralAuthenticationServiceImpl.java
E:\~PLN~\PORTAL\cas-server-4.0.0\cas-server-core\src\main\java\org\jasig\cas\logout\LogoutManager.java
E:\~PLN~\PORTAL\cas-server-4.0.0\cas-server-core\src\main\java\org\jasig\cas\logout\LogoutManagerImpl.java
E:\~PLN~\PORTAL\cas-server-4.0.0\cas-server-core\src\main\java\org\jasig\cas\logout\LogoutMessageCreator.java
E:\~PLN~\PORTAL\cas-server-4.0.0\cas-server-core\src\main\java\org\jasig\cas\logout\LogoutRequest.java
E:\~PLN~\PORTAL\cas-server-4.0.0\cas-server-core\src\main\java\org\jasig\cas\logout\LogoutRequestStatus.java
E:\~PLN~\PORTAL\cas-server-4.0.0\cas-server-core\src\main\java\org\jasig\cas\logout\SamlCompliantLogoutMessageCreator.java
E:\~PLN~\PORTAL\cas-server-4.0.0\cas-server-core\src\main\java\org\jasig\cas\Message.java
E:\~PLN~\PORTAL\cas-server-4.0.0\cas-server-core\src\main\java\org\jasig\cas\monitor\AbstractCacheMonitor.java
E:\~PLN~\PORTAL\cas-server-4.0.0\cas-server-core\src\main\java\org\jasig\cas\monitor\AbstractNamedMonitor.java
E:\~PLN~\PORTAL\cas-server-4.0.0\cas-server-core\src\main\java\org\jasig\cas\monitor\AbstractPoolMonitor.java
E:\~PLN~\PORTAL\cas-server-4.0.0\cas-server-core\src\main\java\org\jasig\cas\monitor\CacheStatistics.java
E:\~PLN~\PORTAL\cas-server-4.0.0\cas-server-core\src\main\java\org\jasig\cas\monitor\CacheStatus.java
E:\~PLN~\PORTAL\cas-server-4.0.0\cas-server-core\src\main\java\org\jasig\cas\monitor\DataSourceMonitor.java
E:\~PLN~\PORTAL\cas-server-4.0.0\cas-server-core\src\main\java\org\jasig\cas\monitor\HealthCheckMonitor.java
E:\~PLN~\PORTAL\cas-server-4.0.0\cas-server-core\src\main\java\org\jasig\cas\monitor\HealthStatus.java
E:\~PLN~\PORTAL\cas-server-4.0.0\cas-server-core\src\main\java\org\jasig\cas\monitor\MemoryMonitor.java
E:\~PLN~\PORTAL\cas-server-4.0.0\cas-server-core\src\main\java\org\jasig\cas\monitor\MemoryStatus.java
E:\~PLN~\PORTAL\cas-server-4.0.0\cas-server-core\src\main\java\org\jasig\cas\monitor\Monitor.java
E:\~PLN~\PORTAL\cas-server-4.0.0\cas-server-core\src\main\java\org\jasig\cas\monitor\PoolStatus.java
E:\~PLN~\PORTAL\cas-server-4.0.0\cas-server-core\src\main\java\org\jasig\cas\monitor\SessionMonitor.java
E:\~PLN~\PORTAL\cas-server-4.0.0\cas-server-core\src\main\java\org\jasig\cas\monitor\SessionStatus.java
E:\~PLN~\PORTAL\cas-server-4.0.0\cas-server-core\src\main\java\org\jasig\cas\monitor\SimpleCacheStatistics.java
E:\~PLN~\PORTAL\cas-server-4.0.0\cas-server-core\src\main\java\org\jasig\cas\monitor\Status.java
E:\~PLN~\PORTAL\cas-server-4.0.0\cas-server-core\src\main\java\org\jasig\cas\monitor\StatusCode.java
E:\~PLN~\PORTAL\cas-server-4.0.0\cas-server-core\src\main\java\org\jasig\cas\monitor\TicketRegistryState.java
E:\~PLN~\PORTAL\cas-server-4.0.0\cas-server-core\src\main\java\org\jasig\cas\remoting\server\RemoteCentralAuthenticationService.java
E:\~PLN~\PORTAL\cas-server-4.0.0\cas-server-core\src\main\java\org\jasig\cas\services\AbstractRegisteredService.java
E:\~PLN~\PORTAL\cas-server-4.0.0\cas-server-core\src\main\java\org\jasig\cas\services\DefaultServicesManagerImpl.java
E:\~PLN~\PORTAL\cas-server-4.0.0\cas-server-core\src\main\java\org\jasig\cas\services\InMemoryServiceRegistryDaoImpl.java
E:\~PLN~\PORTAL\cas-server-4.0.0\cas-server-core\src\main\java\org\jasig\cas\services\jmx\AbstractServicesManagerMBean.java
E:\~PLN~\PORTAL\cas-server-4.0.0\cas-server-core\src\main\java\org\jasig\cas\services\jmx\ReloadableServicesManagerMBean.java
E:\~PLN~\PORTAL\cas-server-4.0.0\cas-server-core\src\main\java\org\jasig\cas\services\jmx\ServicesManagerMBean.java
E:\~PLN~\PORTAL\cas-server-4.0.0\cas-server-core\src\main\java\org\jasig\cas\services\JpaServiceRegistryDaoImpl.java
E:\~PLN~\PORTAL\cas-server-4.0.0\cas-server-core\src\main\java\org\jasig\cas\services\LogoutType.java
E:\~PLN~\PORTAL\cas-server-4.0.0\cas-server-core\src\main\java\org\jasig\cas\services\RegexRegisteredService.java
E:\~PLN~\PORTAL\cas-server-4.0.0\cas-server-core\src\main\java\org\jasig\cas\services\RegisteredService.java
E:\~PLN~\PORTAL\cas-server-4.0.0\cas-server-core\src\main\java\org\jasig\cas\services\RegisteredServiceAttributeFilter.java
E:\~PLN~\PORTAL\cas-server-4.0.0\cas-server-core\src\main\java\org\jasig\cas\services\RegisteredServiceImpl.java
E:\~PLN~\PORTAL\cas-server-4.0.0\cas-server-core\src\main\java\org\jasig\cas\services\ReloadableServicesManager.java
E:\~PLN~\PORTAL\cas-server-4.0.0\cas-server-core\src\main\java\org\jasig\cas\services\ServiceContext.java
E:\~PLN~\PORTAL\cas-server-4.0.0\cas-server-core\src\main\java\org\jasig\cas\services\ServiceRegistryDao.java
E:\~PLN~\PORTAL\cas-server-4.0.0\cas-server-core\src\main\java\org\jasig\cas\services\ServicesManager.java
E:\~PLN~\PORTAL\cas-server-4.0.0\cas-server-core\src\main\java\org\jasig\cas\services\support\RegisteredServiceDefaultAttributeFilter.java
E:\~PLN~\PORTAL\cas-server-4.0.0\cas-server-core\src\main\java\org\jasig\cas\services\support\RegisteredServiceRegexAttributeFilter.java
E:\~PLN~\PORTAL\cas-server-4.0.0\cas-server-core\src\main\java\org\jasig\cas\services\UnauthorizedProxyingException.java
E:\~PLN~\PORTAL\cas-server-4.0.0\cas-server-core\src\main\java\org\jasig\cas\services\UnauthorizedServiceException.java
E:\~PLN~\PORTAL\cas-server-4.0.0\cas-server-core\src\main\java\org\jasig\cas\services\UnauthorizedSsoServiceException.java
E:\~PLN~\PORTAL\cas-server-4.0.0\cas-server-core\src\main\java\org\jasig\cas\ticket\AbstractTicket.java
E:\~PLN~\PORTAL\cas-server-4.0.0\cas-server-core\src\main\java\org\jasig\cas\ticket\ExpirationPolicy.java
E:\~PLN~\PORTAL\cas-server-4.0.0\cas-server-core\src\main\java\org\jasig\cas\ticket\InvalidTicketException.java
E:\~PLN~\PORTAL\cas-server-4.0.0\cas-server-core\src\main\java\org\jasig\cas\ticket\proxy\ProxyHandler.java
E:\~PLN~\PORTAL\cas-server-4.0.0\cas-server-core\src\main\java\org\jasig\cas\ticket\proxy\support\Cas10ProxyHandler.java
E:\~PLN~\PORTAL\cas-server-4.0.0\cas-server-core\src\main\java\org\jasig\cas\ticket\proxy\support\Cas20ProxyHandler.java
E:\~PLN~\PORTAL\cas-server-4.0.0\cas-server-core\src\main\java\org\jasig\cas\ticket\registry\AbstractDistributedTicketRegistry.java
E:\~PLN~\PORTAL\cas-server-4.0.0\cas-server-core\src\main\java\org\jasig\cas\ticket\registry\AbstractTicketRegistry.java
E:\~PLN~\PORTAL\cas-server-4.0.0\cas-server-core\src\main\java\org\jasig\cas\ticket\registry\DefaultTicketRegistry.java
E:\~PLN~\PORTAL\cas-server-4.0.0\cas-server-core\src\main\java\org\jasig\cas\ticket\registry\JpaTicketRegistry.java
E:\~PLN~\PORTAL\cas-server-4.0.0\cas-server-core\src\main\java\org\jasig\cas\ticket\registry\RegistryCleaner.java
E:\~PLN~\PORTAL\cas-server-4.0.0\cas-server-core\src\main\java\org\jasig\cas\ticket\registry\support\DefaultTicketRegistryCleaner.java
E:\~PLN~\PORTAL\cas-server-4.0.0\cas-server-core\src\main\java\org\jasig\cas\ticket\registry\support\JpaLockingStrategy.java
E:\~PLN~\PORTAL\cas-server-4.0.0\cas-server-core\src\main\java\org\jasig\cas\ticket\registry\support\LockingStrategy.java
E:\~PLN~\PORTAL\cas-server-4.0.0\cas-server-core\src\main\java\org\jasig\cas\ticket\registry\support\NoOpLockingStrategy.java
E:\~PLN~\PORTAL\cas-server-4.0.0\cas-server-core\src\main\java\org\jasig\cas\ticket\registry\TicketRegistry.java
E:\~PLN~\PORTAL\cas-server-4.0.0\cas-server-core\src\main\java\org\jasig\cas\ticket\ServiceTicket.java
E:\~PLN~\PORTAL\cas-server-4.0.0\cas-server-core\src\main\java\org\jasig\cas\ticket\ServiceTicketImpl.java
E:\~PLN~\PORTAL\cas-server-4.0.0\cas-server-core\src\main\java\org\jasig\cas\ticket\support\HardTimeoutExpirationPolicy.java
E:\~PLN~\PORTAL\cas-server-4.0.0\cas-server-core\src\main\java\org\jasig\cas\ticket\support\MultiTimeUseOrTimeoutExpirationPolicy.java
E:\~PLN~\PORTAL\cas-server-4.0.0\cas-server-core\src\main\java\org\jasig\cas\ticket\support\NeverExpiresExpirationPolicy.java
E:\~PLN~\PORTAL\cas-server-4.0.0\cas-server-core\src\main\java\org\jasig\cas\ticket\support\RememberMeDelegatingExpirationPolicy.java
E:\~PLN~\PORTAL\cas-server-4.0.0\cas-server-core\src\main\java\org\jasig\cas\ticket\support\ThrottledUseAndTimeoutExpirationPolicy.java
E:\~PLN~\PORTAL\cas-server-4.0.0\cas-server-core\src\main\java\org\jasig\cas\ticket\support\TicketGrantingTicketExpirationPolicy.java
E:\~PLN~\PORTAL\cas-server-4.0.0\cas-server-core\src\main\java\org\jasig\cas\ticket\support\TimeoutExpirationPolicy.java
E:\~PLN~\PORTAL\cas-server-4.0.0\cas-server-core\src\main\java\org\jasig\cas\ticket\Ticket.java
E:\~PLN~\PORTAL\cas-server-4.0.0\cas-server-core\src\main\java\org\jasig\cas\ticket\TicketCreationException.java
E:\~PLN~\PORTAL\cas-server-4.0.0\cas-server-core\src\main\java\org\jasig\cas\ticket\TicketException.java
E:\~PLN~\PORTAL\cas-server-4.0.0\cas-server-core\src\main\java\org\jasig\cas\ticket\TicketGrantingTicket.java
E:\~PLN~\PORTAL\cas-server-4.0.0\cas-server-core\src\main\java\org\jasig\cas\ticket\TicketGrantingTicketImpl.java
E:\~PLN~\PORTAL\cas-server-4.0.0\cas-server-core\src\main\java\org\jasig\cas\ticket\TicketState.java
E:\~PLN~\PORTAL\cas-server-4.0.0\cas-server-core\src\main\java\org\jasig\cas\ticket\TicketValidationException.java
E:\~PLN~\PORTAL\cas-server-4.0.0\cas-server-core\src\main\java\org\jasig\cas\ticket\UnsatisfiedAuthenticationPolicyException.java
E:\~PLN~\PORTAL\cas-server-4.0.0\cas-server-core\src\main\java\org\jasig\cas\util\AopUtils.java
E:\~PLN~\PORTAL\cas-server-4.0.0\cas-server-core\src\main\java\org\jasig\cas\util\ApplicationContextProvider.java
E:\~PLN~\PORTAL\cas-server-4.0.0\cas-server-core\src\main\java\org\jasig\cas\util\CalendarUtils.java
E:\~PLN~\PORTAL\cas-server-4.0.0\cas-server-core\src\main\java\org\jasig\cas\util\CustomBeanValidationPostProcessor.java
E:\~PLN~\PORTAL\cas-server-4.0.0\cas-server-core\src\main\java\org\jasig\cas\util\DefaultLongNumericGenerator.java
E:\~PLN~\PORTAL\cas-server-4.0.0\cas-server-core\src\main\java\org\jasig\cas\util\DefaultRandomStringGenerator.java
E:\~PLN~\PORTAL\cas-server-4.0.0\cas-server-core\src\main\java\org\jasig\cas\util\DefaultUniqueTicketIdGenerator.java
E:\~PLN~\PORTAL\cas-server-4.0.0\cas-server-core\src\main\java\org\jasig\cas\util\HttpClient.java
E:\~PLN~\PORTAL\cas-server-4.0.0\cas-server-core\src\main\java\org\jasig\cas\util\LongNumericGenerator.java
E:\~PLN~\PORTAL\cas-server-4.0.0\cas-server-core\src\main\java\org\jasig\cas\util\NumericGenerator.java
E:\~PLN~\PORTAL\cas-server-4.0.0\cas-server-core\src\main\java\org\jasig\cas\util\Pair.java
E:\~PLN~\PORTAL\cas-server-4.0.0\cas-server-core\src\main\java\org\jasig\cas\util\PrivateKeyFactoryBean.java
E:\~PLN~\PORTAL\cas-server-4.0.0\cas-server-core\src\main\java\org\jasig\cas\util\PublicKeyFactoryBean.java
E:\~PLN~\PORTAL\cas-server-4.0.0\cas-server-core\src\main\java\org\jasig\cas\util\RandomStringGenerator.java
E:\~PLN~\PORTAL\cas-server-4.0.0\cas-server-core\src\main\java\org\jasig\cas\util\SamlDateUtils.java
E:\~PLN~\PORTAL\cas-server-4.0.0\cas-server-core\src\main\java\org\jasig\cas\util\SimpleHttpClient.java
E:\~PLN~\PORTAL\cas-server-4.0.0\cas-server-core\src\main\java\org\jasig\cas\util\SpringAwareMessageMessageInterpolator.java
E:\~PLN~\PORTAL\cas-server-4.0.0\cas-server-core\src\main\java\org\jasig\cas\util\UniqueTicketIdGenerator.java
E:\~PLN~\PORTAL\cas-server-4.0.0\cas-server-core\src\main\java\org\jasig\cas\validation\AbstractCasProtocolValidationSpecification.java
E:\~PLN~\PORTAL\cas-server-4.0.0\cas-server-core\src\main\java\org\jasig\cas\validation\Assertion.java
E:\~PLN~\PORTAL\cas-server-4.0.0\cas-server-core\src\main\java\org\jasig\cas\validation\Cas10ProtocolValidationSpecification.java
E:\~PLN~\PORTAL\cas-server-4.0.0\cas-server-core\src\main\java\org\jasig\cas\validation\Cas20ProtocolValidationSpecification.java
E:\~PLN~\PORTAL\cas-server-4.0.0\cas-server-core\src\main\java\org\jasig\cas\validation\Cas20WithoutProxyingValidationSpecification.java
E:\~PLN~\PORTAL\cas-server-4.0.0\cas-server-core\src\main\java\org\jasig\cas\validation\ImmutableAssertion.java
E:\~PLN~\PORTAL\cas-server-4.0.0\cas-server-core\src\main\java\org\jasig\cas\validation\ValidationSpecification.java
E:\~PLN~\PORTAL\cas-server-4.0.0\cas-server-core\src\main\java\org\jasig\cas\web\bind\CredentialsBinder.java
E:\~PLN~\PORTAL\cas-server-4.0.0\cas-server-core\src\main\java\org\jasig\cas\web\DelegateController.java
E:\~PLN~\PORTAL\cas-server-4.0.0\cas-server-core\src\main\java\org\jasig\cas\web\flow\AbstractNonInteractiveCredentialsAction.java
E:\~PLN~\PORTAL\cas-server-4.0.0\cas-server-core\src\main\java\org\jasig\cas\web\flow\AuthenticationExceptionHandler.java
E:\~PLN~\PORTAL\cas-server-4.0.0\cas-server-core\src\main\java\org\jasig\cas\web\flow\AuthenticationViaFormAction.java
E:\~PLN~\PORTAL\cas-server-4.0.0\cas-server-core\src\main\java\org\jasig\cas\web\init\SafeContextLoaderListener.java
E:\~PLN~\PORTAL\cas-server-4.0.0\cas-server-core\src\main\java\org\jasig\cas\web\init\SafeDispatcherServlet.java
E:\~PLN~\PORTAL\cas-server-4.0.0\cas-server-core\src\main\java\org\jasig\cas\web\support\AbstractArgumentExtractor.java
E:\~PLN~\PORTAL\cas-server-4.0.0\cas-server-core\src\main\java\org\jasig\cas\web\support\ArgumentExtractor.java
E:\~PLN~\PORTAL\cas-server-4.0.0\cas-server-core\src\main\java\org\jasig\cas\web\support\CasArgumentExtractor.java
E:\~PLN~\PORTAL\cas-server-4.0.0\cas-server-core\src\main\java\org\jasig\cas\web\support\WebUtils.java
E:\~PLN~\PORTAL\cas-server-4.0.0\cas-server-core\src\main\java\org\jasig\cas\web\view\AbstractCasView.java
