E:\~PLN~\PORTAL\cas-server-4.0.0\cas-server-core\src\main\java\org\jasig\cas\ticket\support\TicketGrantingTicketExpirationPolicy.java
E:\~PLN~\PORTAL\cas-server-4.0.0\cas-server-core\src\main\java\org\jasig\cas\authentication\principal\SingleLogoutService.java
E:\~PLN~\PORTAL\cas-server-4.0.0\cas-server-core\src\main\java\org\jasig\cas\authentication\Credential.java
E:\~PLN~\PORTAL\cas-server-4.0.0\cas-server-core\src\main\java\org\jasig\cas\authentication\principal\SimpleWebApplicationServiceImpl.java
E:\~PLN~\PORTAL\cas-server-4.0.0\cas-server-core\src\main\java\org\jasig\cas\util\CalendarUtils.java
E:\~PLN~\PORTAL\cas-server-4.0.0\cas-server-core\src\main\java\org\jasig\cas\ticket\support\NeverExpiresExpirationPolicy.java
E:\~PLN~\PORTAL\cas-server-4.0.0\cas-server-core\src\main\java\org\jasig\cas\authentication\principal\PersistentIdGenerator.java
E:\~PLN~\PORTAL\cas-server-4.0.0\cas-server-core\src\main\java\org\jasig\cas\authentication\handler\PrefixSuffixPrincipalNameTransformer.java
E:\~PLN~\PORTAL\cas-server-4.0.0\cas-server-core\src\main\java\org\jasig\cas\audit\spi\ServiceResourceResolver.java
E:\~PLN~\PORTAL\cas-server-4.0.0\cas-server-core\src\main\java\org\jasig\cas\audit\spi\TicketAsFirstParameterResourceResolver.java
E:\~PLN~\PORTAL\cas-server-4.0.0\cas-server-core\src\main\java\org\jasig\cas\services\jmx\AbstractServicesManagerMBean.java
E:\~PLN~\PORTAL\cas-server-4.0.0\cas-server-core\src\main\java\org\jasig\cas\authentication\InvalidLoginTimeException.java
E:\~PLN~\PORTAL\cas-server-4.0.0\cas-server-core\src\main\java\org\jasig\cas\monitor\TicketRegistryState.java
E:\~PLN~\PORTAL\cas-server-4.0.0\cas-server-core\src\main\java\org\jasig\cas\authentication\handler\PrincipalNameTransformer.java
E:\~PLN~\PORTAL\cas-server-4.0.0\cas-server-core\src\main\java\org\jasig\cas\web\flow\AuthenticationViaFormAction.java
E:\~PLN~\PORTAL\cas-server-4.0.0\cas-server-core\src\main\java\org\jasig\cas\authentication\principal\PersonDirectoryPrincipalResolver.java
E:\~PLN~\PORTAL\cas-server-4.0.0\cas-server-core\src\main\java\org\jasig\cas\authentication\MixedPrincipalException.java
E:\~PLN~\PORTAL\cas-server-4.0.0\cas-server-core\src\main\java\org\jasig\cas\authentication\handler\BadPasswordAuthenticationException.java
E:\~PLN~\PORTAL\cas-server-4.0.0\cas-server-core\src\main\java\org\jasig\cas\authentication\AcceptUsersAuthenticationHandler.java
E:\~PLN~\PORTAL\cas-server-4.0.0\cas-server-core\src\main\java\org\jasig\cas\ticket\support\MultiTimeUseOrTimeoutExpirationPolicy.java
E:\~PLN~\PORTAL\cas-server-4.0.0\cas-server-core\src\main\java\org\jasig\cas\authentication\NotPreventedAuthenticationPolicy.java
E:\~PLN~\PORTAL\cas-server-4.0.0\cas-server-core\src\main\java\org\jasig\cas\services\UnauthorizedProxyingException.java
E:\~PLN~\PORTAL\cas-server-4.0.0\cas-server-core\src\main\java\org\jasig\cas\authentication\PreventedException.java
E:\~PLN~\PORTAL\cas-server-4.0.0\cas-server-core\src\main\java\org\jasig\cas\util\SimpleHttpClient.java
E:\~PLN~\PORTAL\cas-server-4.0.0\cas-server-core\src\main\java\org\jasig\cas\web\support\ArgumentExtractor.java
E:\~PLN~\PORTAL\cas-server-4.0.0\cas-server-core\src\main\java\org\jasig\cas\validation\Cas10ProtocolValidationSpecification.java
E:\~PLN~\PORTAL\cas-server-4.0.0\cas-server-core\src\main\java\org\jasig\cas\monitor\SessionMonitor.java
E:\~PLN~\PORTAL\cas-server-4.0.0\cas-server-core\src\main\java\org\jasig\cas\ticket\TicketException.java
E:\~PLN~\PORTAL\cas-server-4.0.0\cas-server-core\src\main\java\org\jasig\cas\audit\spi\TicketOrCredentialPrincipalResolver.java
E:\~PLN~\PORTAL\cas-server-4.0.0\cas-server-core\src\main\java\org\jasig\cas\validation\Cas20WithoutProxyingValidationSpecification.java
E:\~PLN~\PORTAL\cas-server-4.0.0\cas-server-core\src\main\java\org\jasig\cas\authentication\AcceptAnyAuthenticationPolicyFactory.java
E:\~PLN~\PORTAL\cas-server-4.0.0\cas-server-core\src\main\java\org\jasig\cas\services\support\RegisteredServiceDefaultAttributeFilter.java
E:\~PLN~\PORTAL\cas-server-4.0.0\cas-server-core\src\main\java\org\jasig\cas\util\AopUtils.java
E:\~PLN~\PORTAL\cas-server-4.0.0\cas-server-core\src\main\java\org\jasig\cas\authentication\AuthenticationBuilder.java
E:\~PLN~\PORTAL\cas-server-4.0.0\cas-server-core\src\main\java\org\jasig\cas\authentication\AuthenticationMetaDataPopulator.java
E:\~PLN~\PORTAL\cas-server-4.0.0\cas-server-core\src\main\java\org\jasig\cas\web\support\WebUtils.java
E:\~PLN~\PORTAL\cas-server-4.0.0\cas-server-core\src\main\java\org\jasig\cas\logout\LogoutRequest.java
E:\~PLN~\PORTAL\cas-server-4.0.0\cas-server-core\src\main\java\org\jasig\cas\authentication\handler\BadUsernameOrPasswordAuthenticationException.java
E:\~PLN~\PORTAL\cas-server-4.0.0\cas-server-core\src\main\java\org\jasig\cas\logout\LogoutMessageCreator.java
E:\~PLN~\PORTAL\cas-server-4.0.0\cas-server-core\src\main\java\org\jasig\cas\util\PublicKeyFactoryBean.java
E:\~PLN~\PORTAL\cas-server-4.0.0\cas-server-core\src\main\java\org\jasig\cas\authentication\handler\PlainTextPasswordEncoder.java
E:\~PLN~\PORTAL\cas-server-4.0.0\cas-server-core\src\main\java\org\jasig\cas\ticket\support\HardTimeoutExpirationPolicy.java
E:\~PLN~\PORTAL\cas-server-4.0.0\cas-server-core\src\main\java\org\jasig\cas\services\RegisteredServiceAttributeFilter.java
E:\~PLN~\PORTAL\cas-server-4.0.0\cas-server-core\src\main\java\org\jasig\cas\ticket\proxy\ProxyHandler.java
E:\~PLN~\PORTAL\cas-server-4.0.0\cas-server-core\src\main\java\org\jasig\cas\ticket\registry\support\JpaLockingStrategy.java
E:\~PLN~\PORTAL\cas-server-4.0.0\cas-server-core\src\main\java\org\jasig\cas\validation\Assertion.java
E:\~PLN~\PORTAL\cas-server-4.0.0\cas-server-core\src\main\java\org\jasig\cas\util\CustomBeanValidationPostProcessor.java
E:\~PLN~\PORTAL\cas-server-4.0.0\cas-server-core\src\main\java\org\jasig\cas\audit\spi\ServiceManagementResourceResolver.java
E:\~PLN~\PORTAL\cas-server-4.0.0\cas-server-core\src\main\java\org\jasig\cas\authentication\RememberMeUsernamePasswordCredential.java
E:\~PLN~\PORTAL\cas-server-4.0.0\cas-server-core\src\main\java\org\jasig\cas\util\DefaultUniqueTicketIdGenerator.java
E:\~PLN~\PORTAL\cas-server-4.0.0\cas-server-core\src\main\java\org\jasig\cas\monitor\SessionStatus.java
E:\~PLN~\PORTAL\cas-server-4.0.0\cas-server-core\src\main\java\org\jasig\cas\monitor\MemoryStatus.java
E:\~PLN~\PORTAL\cas-server-4.0.0\cas-server-core\src\main\java\org\jasig\cas\CentralAuthenticationService.java
E:\~PLN~\PORTAL\cas-server-4.0.0\cas-server-core\src\main\java\org\jasig\cas\ticket\registry\DefaultTicketRegistry.java
E:\~PLN~\PORTAL\cas-server-4.0.0\cas-server-core\src\main\java\org\jasig\cas\monitor\SimpleCacheStatistics.java
E:\~PLN~\PORTAL\cas-server-4.0.0\cas-server-core\src\main\java\org\jasig\cas\monitor\Status.java
E:\~PLN~\PORTAL\cas-server-4.0.0\cas-server-core\src\main\java\org\jasig\cas\authentication\AccountDisabledException.java
E:\~PLN~\PORTAL\cas-server-4.0.0\cas-server-core\src\main\java\org\jasig\cas\authentication\handler\PasswordEncoder.java
E:\~PLN~\PORTAL\cas-server-4.0.0\cas-server-core\src\main\java\org\jasig\cas\logout\SamlCompliantLogoutMessageCreator.java
E:\~PLN~\PORTAL\cas-server-4.0.0\cas-server-core\src\main\java\org\jasig\cas\util\UniqueTicketIdGenerator.java
E:\~PLN~\PORTAL\cas-server-4.0.0\cas-server-core\src\main\java\org\jasig\cas\authentication\AbstractAuthenticationHandler.java
E:\~PLN~\PORTAL\cas-server-4.0.0\cas-server-core\src\main\java\org\jasig\cas\authentication\handler\support\JaasAuthenticationHandler.java
E:\~PLN~\PORTAL\cas-server-4.0.0\cas-server-core\src\main\java\org\jasig\cas\authentication\handler\NoOpPrincipalNameTransformer.java
E:\~PLN~\PORTAL\cas-server-4.0.0\cas-server-core\src\main\java\org\jasig\cas\ticket\proxy\support\Cas20ProxyHandler.java
E:\~PLN~\PORTAL\cas-server-4.0.0\cas-server-core\src\main\java\org\jasig\cas\web\flow\AbstractNonInteractiveCredentialsAction.java
E:\~PLN~\PORTAL\cas-server-4.0.0\cas-server-core\src\main\java\org\jasig\cas\authentication\UsernamePasswordCredential.java
E:\~PLN~\PORTAL\cas-server-4.0.0\cas-server-core\src\main\java\org\jasig\cas\services\LogoutType.java
E:\~PLN~\PORTAL\cas-server-4.0.0\cas-server-core\src\main\java\org\jasig\cas\services\RegexRegisteredService.java
E:\~PLN~\PORTAL\cas-server-4.0.0\cas-server-core\src\main\java\org\jasig\cas\web\flow\AuthenticationExceptionHandler.java
E:\~PLN~\PORTAL\cas-server-4.0.0\cas-server-core\src\main\java\org\jasig\cas\authentication\handler\BlockedCredentialsAuthenticationException.java
E:\~PLN~\PORTAL\cas-server-4.0.0\cas-server-core\src\main\java\org\jasig\cas\monitor\MemoryMonitor.java
E:\~PLN~\PORTAL\cas-server-4.0.0\cas-server-core\src\main\java\org\jasig\cas\validation\Cas20ProtocolValidationSpecification.java
E:\~PLN~\PORTAL\cas-server-4.0.0\cas-server-core\src\main\java\org\jasig\cas\authentication\AuthenticationManager.java
E:\~PLN~\PORTAL\cas-server-4.0.0\cas-server-core\src\main\java\org\jasig\cas\authentication\UnresolvedPrincipalException.java
E:\~PLN~\PORTAL\cas-server-4.0.0\cas-server-core\src\main\java\org\jasig\cas\services\DefaultServicesManagerImpl.java
E:\~PLN~\PORTAL\cas-server-4.0.0\cas-server-core\src\main\java\org\jasig\cas\authentication\principal\Response.java
E:\~PLN~\PORTAL\cas-server-4.0.0\cas-server-core\src\main\java\org\jasig\cas\audit\spi\CredentialsAsFirstParameterResourceResolver.java
E:\~PLN~\PORTAL\cas-server-4.0.0\cas-server-core\src\main\java\org\jasig\cas\monitor\AbstractCacheMonitor.java
E:\~PLN~\PORTAL\cas-server-4.0.0\cas-server-core\src\main\java\org\jasig\cas\authentication\principal\ChainingPrincipalResolver.java
E:\~PLN~\PORTAL\cas-server-4.0.0\cas-server-core\src\main\java\org\jasig\cas\services\ServicesManager.java
E:\~PLN~\PORTAL\cas-server-4.0.0\cas-server-core\src\main\java\org\jasig\cas\authentication\HttpBasedServiceCredential.java
E:\~PLN~\PORTAL\cas-server-4.0.0\cas-server-core\src\main\java\org\jasig\cas\authentication\handler\support\AbstractUsernamePasswordAuthenticationHandler.java
E:\~PLN~\PORTAL\cas-server-4.0.0\cas-server-core\src\main\java\org\jasig\cas\ticket\InvalidTicketException.java
E:\~PLN~\PORTAL\cas-server-4.0.0\cas-server-core\src\main\java\org\jasig\cas\ticket\Ticket.java
E:\~PLN~\PORTAL\cas-server-4.0.0\cas-server-core\src\main\java\org\jasig\cas\authentication\AuthenticationHandler.java
E:\~PLN~\PORTAL\cas-server-4.0.0\cas-server-core\src\main\java\org\jasig\cas\monitor\StatusCode.java
E:\~PLN~\PORTAL\cas-server-4.0.0\cas-server-core\src\main\java\org\jasig\cas\ticket\registry\JpaTicketRegistry.java
E:\~PLN~\PORTAL\cas-server-4.0.0\cas-server-core\src\main\java\org\jasig\cas\authentication\AuthenticationPolicy.java
E:\~PLN~\PORTAL\cas-server-4.0.0\cas-server-core\src\main\java\org\jasig\cas\authentication\principal\SimplePrincipal.java
E:\~PLN~\PORTAL\cas-server-4.0.0\cas-server-core\src\main\java\org\jasig\cas\authentication\AllAuthenticationPolicy.java
E:\~PLN~\PORTAL\cas-server-4.0.0\cas-server-core\src\main\java\org\jasig\cas\authentication\RequiredHandlerAuthenticationPolicy.java
E:\~PLN~\PORTAL\cas-server-4.0.0\cas-server-core\src\main\java\org\jasig\cas\authentication\handler\UnsupportedCredentialsException.java
E:\~PLN~\PORTAL\cas-server-4.0.0\cas-server-core\src\main\java\org\jasig\cas\ticket\registry\support\LockingStrategy.java
E:\~PLN~\PORTAL\cas-server-4.0.0\cas-server-core\src\main\java\org\jasig\cas\authentication\Authentication.java
E:\~PLN~\PORTAL\cas-server-4.0.0\cas-server-core\src\main\java\org\jasig\cas\monitor\PoolStatus.java
E:\~PLN~\PORTAL\cas-server-4.0.0\cas-server-core\src\main\java\org\jasig\cas\authentication\principal\PrincipalResolver.java
E:\~PLN~\PORTAL\cas-server-4.0.0\cas-server-core\src\main\java\org\jasig\cas\logout\LogoutRequestStatus.java
E:\~PLN~\PORTAL\cas-server-4.0.0\cas-server-core\src\main\java\org\jasig\cas\authentication\ImmutableAuthentication.java
E:\~PLN~\PORTAL\cas-server-4.0.0\cas-server-core\src\main\java\org\jasig\cas\ticket\ServiceTicketImpl.java
E:\~PLN~\PORTAL\cas-server-4.0.0\cas-server-core\src\main\java\org\jasig\cas\authentication\handler\DefaultPasswordEncoder.java
E:\~PLN~\PORTAL\cas-server-4.0.0\cas-server-core\src\main\java\org\jasig\cas\CentralAuthenticationServiceImpl.java
E:\~PLN~\PORTAL\cas-server-4.0.0\cas-server-core\src\main\java\org\jasig\cas\monitor\HealthStatus.java
E:\~PLN~\PORTAL\cas-server-4.0.0\cas-server-core\src\main\java\org\jasig\cas\authentication\CredentialMetaData.java
E:\~PLN~\PORTAL\cas-server-4.0.0\cas-server-core\src\main\java\org\jasig\cas\ticket\support\ThrottledUseAndTimeoutExpirationPolicy.java
E:\~PLN~\PORTAL\cas-server-4.0.0\cas-server-core\src\main\java\org\jasig\cas\util\ApplicationContextProvider.java
E:\~PLN~\PORTAL\cas-server-4.0.0\cas-server-core\src\main\java\org\jasig\cas\authentication\RequiredHandlerAuthenticationPolicyFactory.java
E:\~PLN~\PORTAL\cas-server-4.0.0\cas-server-core\src\main\java\org\jasig\cas\web\bind\CredentialsBinder.java
E:\~PLN~\PORTAL\cas-server-4.0.0\cas-server-core\src\main\java\org\jasig\cas\ticket\support\TimeoutExpirationPolicy.java
E:\~PLN~\PORTAL\cas-server-4.0.0\cas-server-core\src\main\java\org\jasig\cas\services\UnauthorizedServiceException.java
E:\~PLN~\PORTAL\cas-server-4.0.0\cas-server-core\src\main\java\org\jasig\cas\ticket\ExpirationPolicy.java
E:\~PLN~\PORTAL\cas-server-4.0.0\cas-server-core\src\main\java\org\jasig\cas\util\SpringAwareMessageMessageInterpolator.java
E:\~PLN~\PORTAL\cas-server-4.0.0\cas-server-core\src\main\java\org\jasig\cas\services\support\RegisteredServiceRegexAttributeFilter.java
E:\~PLN~\PORTAL\cas-server-4.0.0\cas-server-core\src\main\java\org\jasig\cas\CasVersion.java
E:\~PLN~\PORTAL\cas-server-4.0.0\cas-server-core\src\main\java\org\jasig\cas\services\ReloadableServicesManager.java
E:\~PLN~\PORTAL\cas-server-4.0.0\cas-server-core\src\main\java\org\jasig\cas\util\SamlDateUtils.java
E:\~PLN~\PORTAL\cas-server-4.0.0\cas-server-core\src\main\java\org\jasig\cas\authentication\BasicCredentialMetaData.java
E:\~PLN~\PORTAL\cas-server-4.0.0\cas-server-core\src\main\java\org\jasig\cas\authentication\principal\ShibbolethCompatiblePersistentIdGenerator.java
E:\~PLN~\PORTAL\cas-server-4.0.0\cas-server-core\src\main\java\org\jasig\cas\services\ServiceRegistryDao.java
E:\~PLN~\PORTAL\cas-server-4.0.0\cas-server-core\src\main\java\org\jasig\cas\services\JpaServiceRegistryDaoImpl.java
E:\~PLN~\PORTAL\cas-server-4.0.0\cas-server-core\src\main\java\org\jasig\cas\web\init\SafeContextLoaderListener.java
E:\~PLN~\PORTAL\cas-server-4.0.0\cas-server-core\src\main\java\org\jasig\cas\monitor\AbstractNamedMonitor.java
E:\~PLN~\PORTAL\cas-server-4.0.0\cas-server-core\src\main\java\org\jasig\cas\util\NumericGenerator.java
E:\~PLN~\PORTAL\cas-server-4.0.0\cas-server-core\src\main\java\org\jasig\cas\authentication\RootCasException.java
E:\~PLN~\PORTAL\cas-server-4.0.0\cas-server-core\src\main\java\org\jasig\cas\validation\AbstractCasProtocolValidationSpecification.java
E:\~PLN~\PORTAL\cas-server-4.0.0\cas-server-core\src\main\java\org\jasig\cas\monitor\CacheStatistics.java
E:\~PLN~\PORTAL\cas-server-4.0.0\cas-server-core\src\main\java\org\jasig\cas\util\DefaultRandomStringGenerator.java
E:\~PLN~\PORTAL\cas-server-4.0.0\cas-server-core\src\main\java\org\jasig\cas\services\RegisteredServiceImpl.java
E:\~PLN~\PORTAL\cas-server-4.0.0\cas-server-core\src\main\java\org\jasig\cas\authentication\principal\Service.java
E:\~PLN~\PORTAL\cas-server-4.0.0\cas-server-core\src\main\java\org\jasig\cas\ticket\UnsatisfiedAuthenticationPolicyException.java
E:\~PLN~\PORTAL\cas-server-4.0.0\cas-server-core\src\main\java\org\jasig\cas\ticket\registry\TicketRegistry.java
E:\~PLN~\PORTAL\cas-server-4.0.0\cas-server-core\src\main\java\org\jasig\cas\ticket\TicketGrantingTicket.java
E:\~PLN~\PORTAL\cas-server-4.0.0\cas-server-core\src\main\java\org\jasig\cas\ticket\AbstractTicket.java
E:\~PLN~\PORTAL\cas-server-4.0.0\cas-server-core\src\main\java\org\jasig\cas\services\jmx\ReloadableServicesManagerMBean.java
E:\~PLN~\PORTAL\cas-server-4.0.0\cas-server-core\src\main\java\org\jasig\cas\monitor\Monitor.java
E:\~PLN~\PORTAL\cas-server-4.0.0\cas-server-core\src\main\java\org\jasig\cas\util\Pair.java
E:\~PLN~\PORTAL\cas-server-4.0.0\cas-server-core\src\main\java\org\jasig\cas\util\HttpClient.java
E:\~PLN~\PORTAL\cas-server-4.0.0\cas-server-core\src\main\java\org\jasig\cas\authentication\ContextualAuthenticationPolicyFactory.java
E:\~PLN~\PORTAL\cas-server-4.0.0\cas-server-core\src\main\java\org\jasig\cas\authentication\handler\UnknownUsernameAuthenticationException.java
E:\~PLN~\PORTAL\cas-server-4.0.0\cas-server-core\src\main\java\org\jasig\cas\ticket\support\RememberMeDelegatingExpirationPolicy.java
E:\~PLN~\PORTAL\cas-server-4.0.0\cas-server-core\src\main\java\org\jasig\cas\authentication\AbstractCredential.java
E:\~PLN~\PORTAL\cas-server-4.0.0\cas-server-core\src\main\java\org\jasig\cas\util\PrivateKeyFactoryBean.java
E:\~PLN~\PORTAL\cas-server-4.0.0\cas-server-core\src\main\java\org\jasig\cas\validation\ValidationSpecification.java
E:\~PLN~\PORTAL\cas-server-4.0.0\cas-server-core\src\main\java\org\jasig\cas\logout\LogoutManager.java
E:\~PLN~\PORTAL\cas-server-4.0.0\cas-server-core\src\main\java\org\jasig\cas\authentication\ContextualAuthenticationPolicy.java
E:\~PLN~\PORTAL\cas-server-4.0.0\cas-server-core\src\main\java\org\jasig\cas\ticket\registry\AbstractDistributedTicketRegistry.java
E:\~PLN~\PORTAL\cas-server-4.0.0\cas-server-core\src\main\java\org\jasig\cas\authentication\handler\support\AbstractPreAndPostProcessingAuthenticationHandler.java
E:\~PLN~\PORTAL\cas-server-4.0.0\cas-server-core\src\main\java\org\jasig\cas\authentication\handler\support\HttpBasedServiceCredentialsAuthenticationHandler.java
E:\~PLN~\PORTAL\cas-server-4.0.0\cas-server-core\src\main\java\org\jasig\cas\ticket\ServiceTicket.java
E:\~PLN~\PORTAL\cas-server-4.0.0\cas-server-core\src\main\java\org\jasig\cas\authentication\handler\AuthenticationException.java
E:\~PLN~\PORTAL\cas-server-4.0.0\cas-server-core\src\main\java\org\jasig\cas\authentication\principal\RememberMeAuthenticationMetaDataPopulator.java
E:\~PLN~\PORTAL\cas-server-4.0.0\cas-server-core\src\main\java\org\jasig\cas\monitor\DataSourceMonitor.java
E:\~PLN~\PORTAL\cas-server-4.0.0\cas-server-core\src\main\java\org\jasig\cas\ticket\TicketGrantingTicketImpl.java
E:\~PLN~\PORTAL\cas-server-4.0.0\cas-server-core\src\main\java\org\jasig\cas\authentication\principal\BasicPrincipalResolver.java
E:\~PLN~\PORTAL\cas-server-4.0.0\cas-server-core\src\main\java\org\jasig\cas\remoting\server\RemoteCentralAuthenticationService.java
E:\~PLN~\PORTAL\cas-server-4.0.0\cas-server-core\src\main\java\org\jasig\cas\authentication\AnyAuthenticationPolicy.java
E:\~PLN~\PORTAL\cas-server-4.0.0\cas-server-core\src\main\java\org\jasig\cas\authentication\AuthenticationException.java
E:\~PLN~\PORTAL\cas-server-4.0.0\cas-server-core\src\main\java\org\jasig\cas\web\view\AbstractCasView.java
E:\~PLN~\PORTAL\cas-server-4.0.0\cas-server-core\src\main\java\org\jasig\cas\web\support\CasArgumentExtractor.java
E:\~PLN~\PORTAL\cas-server-4.0.0\cas-server-core\src\main\java\org\jasig\cas\web\support\AbstractArgumentExtractor.java
E:\~PLN~\PORTAL\cas-server-4.0.0\cas-server-core\src\main\java\org\jasig\cas\ticket\registry\support\DefaultTicketRegistryCleaner.java
E:\~PLN~\PORTAL\cas-server-4.0.0\cas-server-core\src\main\java\org\jasig\cas\ticket\proxy\support\Cas10ProxyHandler.java
E:\~PLN~\PORTAL\cas-server-4.0.0\cas-server-core\src\main\java\org\jasig\cas\ticket\TicketState.java
E:\~PLN~\PORTAL\cas-server-4.0.0\cas-server-core\src\main\java\org\jasig\cas\authentication\AccountPasswordMustChangeException.java
E:\~PLN~\PORTAL\cas-server-4.0.0\cas-server-core\src\main\java\org\jasig\cas\ticket\registry\RegistryCleaner.java
E:\~PLN~\PORTAL\cas-server-4.0.0\cas-server-core\src\main\java\org\jasig\cas\services\RegisteredService.java
E:\~PLN~\PORTAL\cas-server-4.0.0\cas-server-core\src\main\java\org\jasig\cas\authentication\HandlerResult.java
E:\~PLN~\PORTAL\cas-server-4.0.0\cas-server-core\src\main\java\org\jasig\cas\authentication\InvalidLoginLocationException.java
E:\~PLN~\PORTAL\cas-server-4.0.0\cas-server-core\src\main\java\org\jasig\cas\validation\ImmutableAssertion.java
E:\~PLN~\PORTAL\cas-server-4.0.0\cas-server-core\src\main\java\org\jasig\cas\authentication\RememberMeCredential.java
E:\~PLN~\PORTAL\cas-server-4.0.0\cas-server-core\src\main\java\org\jasig\cas\services\ServiceContext.java
E:\~PLN~\PORTAL\cas-server-4.0.0\cas-server-core\src\main\java\org\jasig\cas\authentication\support\PasswordPolicyConfiguration.java
E:\~PLN~\PORTAL\cas-server-4.0.0\cas-server-core\src\main\java\org\jasig\cas\authentication\handler\UncategorizedAuthenticationException.java
E:\~PLN~\PORTAL\cas-server-4.0.0\cas-server-core\src\main\java\org\jasig\cas\monitor\CacheStatus.java
E:\~PLN~\PORTAL\cas-server-4.0.0\cas-server-core\src\main\java\org\jasig\cas\Message.java
E:\~PLN~\PORTAL\cas-server-4.0.0\cas-server-core\src\main\java\org\jasig\cas\services\jmx\ServicesManagerMBean.java
E:\~PLN~\PORTAL\cas-server-4.0.0\cas-server-core\src\main\java\org\jasig\cas\authentication\OneTimePasswordCredential.java
E:\~PLN~\PORTAL\cas-server-4.0.0\cas-server-core\src\main\java\org\jasig\cas\ticket\TicketValidationException.java
E:\~PLN~\PORTAL\cas-server-4.0.0\cas-server-core\src\main\java\org\jasig\cas\ticket\registry\AbstractTicketRegistry.java
E:\~PLN~\PORTAL\cas-server-4.0.0\cas-server-core\src\main\java\org\jasig\cas\monitor\HealthCheckMonitor.java
E:\~PLN~\PORTAL\cas-server-4.0.0\cas-server-core\src\main\java\org\jasig\cas\authentication\PrincipalException.java
E:\~PLN~\PORTAL\cas-server-4.0.0\cas-server-core\src\main\java\org\jasig\cas\monitor\AbstractPoolMonitor.java
E:\~PLN~\PORTAL\cas-server-4.0.0\cas-server-core\src\main\java\org\jasig\cas\aspect\LogAspect.java
E:\~PLN~\PORTAL\cas-server-4.0.0\cas-server-core\src\main\java\org\jasig\cas\authentication\principal\Principal.java
E:\~PLN~\PORTAL\cas-server-4.0.0\cas-server-core\src\main\java\org\jasig\cas\services\UnauthorizedSsoServiceException.java
E:\~PLN~\PORTAL\cas-server-4.0.0\cas-server-core\src\main\java\org\jasig\cas\authentication\support\PasswordExpiringWarningMessage.java
E:\~PLN~\PORTAL\cas-server-4.0.0\cas-server-core\src\main\java\org\jasig\cas\authentication\SuccessfulHandlerMetaDataPopulator.java
E:\~PLN~\PORTAL\cas-server-4.0.0\cas-server-core\src\main\java\org\jasig\cas\authentication\PolicyBasedAuthenticationManager.java
E:\~PLN~\PORTAL\cas-server-4.0.0\cas-server-core\src\main\java\org\jasig\cas\ticket\registry\support\NoOpLockingStrategy.java
E:\~PLN~\PORTAL\cas-server-4.0.0\cas-server-core\src\main\java\org\jasig\cas\web\DelegateController.java
E:\~PLN~\PORTAL\cas-server-4.0.0\cas-server-core\src\main\java\org\jasig\cas\services\InMemoryServiceRegistryDaoImpl.java
E:\~PLN~\PORTAL\cas-server-4.0.0\cas-server-core\src\main\java\org\jasig\cas\util\DefaultLongNumericGenerator.java
E:\~PLN~\PORTAL\cas-server-4.0.0\cas-server-core\src\main\java\org\jasig\cas\web\init\SafeDispatcherServlet.java
E:\~PLN~\PORTAL\cas-server-4.0.0\cas-server-core\src\main\java\org\jasig\cas\util\LongNumericGenerator.java
E:\~PLN~\PORTAL\cas-server-4.0.0\cas-server-core\src\main\java\org\jasig\cas\authentication\principal\AbstractWebApplicationService.java
E:\~PLN~\PORTAL\cas-server-4.0.0\cas-server-core\src\main\java\org\jasig\cas\ticket\TicketCreationException.java
E:\~PLN~\PORTAL\cas-server-4.0.0\cas-server-core\src\main\java\org\jasig\cas\logout\LogoutManagerImpl.java
E:\~PLN~\PORTAL\cas-server-4.0.0\cas-server-core\src\main\java\org\jasig\cas\util\RandomStringGenerator.java
E:\~PLN~\PORTAL\cas-server-4.0.0\cas-server-core\src\main\java\org\jasig\cas\authentication\principal\WebApplicationService.java
E:\~PLN~\PORTAL\cas-server-4.0.0\cas-server-core\src\main\java\org\jasig\cas\authentication\handler\BadCredentialsAuthenticationException.java
E:\~PLN~\PORTAL\cas-server-4.0.0\cas-server-core\src\main\java\org\jasig\cas\services\AbstractRegisteredService.java
